## net.sf.picard.metrics.StringHeader
# net.sf.picard.analysis.CollectGcBiasMetrics REFERENCE_SEQUENCE=../../Reference.fasta INPUT=../../output_sorted.bam OUTPUT=output_picard.txt CHART_OUTPUT=output.pdf SUMMARY_OUTPUT=output_summary.txt ASSUME_SORTED=true    WINDOW_SIZE=100 MINIMUM_GENOME_FRACTION=1.0E-5 IS_BISULFITE_SEQUENCED=false VERBOSITY=INFO QUIET=false VALIDATION_STRINGENCY=STRICT COMPRESSION_LEVEL=5 MAX_RECORDS_IN_RAM=500000 CREATE_INDEX=false CREATE_MD5_FILE=false
## net.sf.picard.metrics.StringHeader
# Started on: Thu Feb 14 15:18:24 BRT 2019

## METRICS CLASS	net.sf.picard.analysis.GcBiasDetailMetrics
GC	WINDOWS	READ_STARTS	MEAN_BASE_QUALITY	NORMALIZED_COVERAGE	ERROR_BAR_WIDTH
43	1	0	0	0	0
44	10	2	22	1.875402	1.32611
45	15	1	16	0.625134	0.625134
46	46	4	15	0.815392	0.407696
47	82	10	13	1.143538	0.361618
48	96	4	14	0.390709	0.195354
49	165	13	12	0.738795	0.204905
50	266	27	14	0.951802	0.183174
51	316	18	13	0.534134	0.125896
52	475	35	15	0.690938	0.11679
53	652	43	14	0.618422	0.094309
54	843	56	15	0.622909	0.08324
55	997	102	15	0.959333	0.094988
56	1231	114	15	0.868383	0.081331
57	1529	168	15	1.030306	0.07949
58	2004	203	15	0.949867	0.066668
59	2515	252	15	0.939565	0.059187
60	3084	357	14	1.085471	0.057449
61	3455	390	15	1.058476	0.053598
62	3940	374	15	0.890102	0.046026
63	4155	469	15	1.05844	0.048874
64	4499	467	14	0.973342	0.045041
65	4446	517	15	1.090399	0.047956
66	4222	473	15	1.050527	0.048303
67	3892	404	15	0.973359	0.048426
68	3427	399	15	1.09175	0.054656
69	3096	318	15	0.963143	0.05401
70	2570	307	15	1.120133	0.063929
71	2056	215	15	0.980573	0.066874
72	1499	169	15	1.057181	0.081322
73	1147	114	15	0.931978	0.087288
74	852	103	15	1.133606	0.111697
75	561	69	16	1.153322	0.138844
76	389	40	15	0.964217	0.152456
77	306	35	14	1.072534	0.181291
78	296	41	14	1.298843	0.202845
79	153	12	14	0.735452	0.212307
80	85	6	14	0.661907	0.270222
81	32	2	17	0.586063	0.414409
82	11	1	0	0.852455	0.852455
83	13	0	0	0	0
84	17	4	13	2.206355	1.103178
85	13	1	13	0.721308	0.721308
86	7	3	13	4.018719	2.320208
87	3	0	0	0	0


